,latitude,longitude,year,pf_pos,pf_pr,examined,month,neighbor_vectors
12,-0.1383,34.3012,2005,5.0,0.0266,188.0,12,2.0
34,-19.2953,34.211,2002,39.0,0.3645,107.0,12,2.0
62,-0.0937,34.3991,1998,14.0,0.6667,21.0,7,3.0
70,13.55,-15.917,1991,9.0,0.3,30.0,12,2.0
91,-8.3848,36.6712,2004,40.0,0.3922,102.0,12,2.0
93,-8.3848,36.6712,2001,16.0,0.2105,76.0,12,52.0
126,0.1019,34.3106,1995,49.0,0.7903,62.0,10,1.0
156,-0.0757,34.2049,2005,2.0,0.0204,98.0,12,2.0
182,-3.7148,39.7293,1999,45.0,0.75,60.0,6,9.0
200,-8.3238,36.117,2001,9.0,0.2571,35.0,12,25.0
238,13.368,-14.218,1991,7.0,0.25,28.0,12,2.0
264,0.10800000000000001,34.7699,2005,21.0,0.2658,79.0,12,2.0
266,0.10800000000000001,34.7699,2004,35.0,0.3398,103.0,2,8.0
267,0.10800000000000001,34.7699,2004,36.0,0.3711,97.0,3,4.0
285,-0.12300000000000001,34.3826,1998,4.0,0.25,16.0,6,58.0
363,-8.3626,36.0779,2001,43.0,0.2986,144.0,12,18.0
366,-0.0785,34.2543,2005,19.0,0.2088,91.0,6,5.0
372,-19.4736,34.9083,2002,54.0,0.4463,121.0,12,2.0
417,-3.4757,37.5688,2001,8.0,0.0488,164.0,12,12.0
548,0.1712,34.7606,2005,58.0,0.5686,102.0,2,1.0
549,0.1712,34.7606,2004,68.0,0.6296,108.0,3,4.0
550,0.1712,34.7606,2004,56.0,0.5714,98.0,4,3.0
557,-0.0343,34.3428,2005,36.0,0.2517,143.0,12,2.0
610,0.3167,35.0616,2002,17.0,0.1056,161.0,12,9.0
615,-0.0698,34.3296,2005,3.0,0.0309,97.0,5,2.0
619,-3.7184,39.7256,2001,15.0,0.2727,55.0,5,10.0
621,-3.7184,39.7256,1999,31.0,0.5849,53.0,5,1.0
640,-0.10800000000000001,34.2267,2005,0.0,0.0,68.0,12,2.0
644,-8.4862,36.5385,2002,22.0,0.4583,48.0,12,60.0
646,-8.4862,36.5385,2000,29.0,0.5918,49.0,12,2.0
655,-0.1012,34.5577,1999,6.0,0.2222,27.0,5,1.0
671,-0.0826,34.224000000000004,2005,1.0,0.0093,107.0,5,2.0
680,-3.4921,39.8873,2001,8.0,0.1053,76.0,12,7.0
681,-3.4921,39.8873,2000,21.0,0.28,75.0,5,3.0
683,-3.4921,39.8873,1998,25.0,0.3165,79.0,5,68.0
690,-3.5143,39.826,2002,17.0,0.2329,73.0,12,11.0
691,-3.5143,39.826,2000,18.0,0.225,80.0,5,1.0
760,-8.2402,36.6916,2002,14.0,0.1429,98.0,12,55.0
762,-8.2402,36.6916,2000,34.0,0.3864,88.0,12,2.0
765,0.3474,34.5394,1997,4.0,0.0656,61.0,5,1.0
775,7.4017,-7.5486,2005,10.0,0.5,20.0,3,1.0
781,-0.11699999999999999,34.266,2005,2.0,0.006,332.0,3,14.0
783,-6.545,38.835,1992,45.0,0.8824,51.0,9,7.0
798,-8.3305,36.6703,2000,12.0,0.3529,34.0,12,2.0
803,-3.227,37.6098,2001,4.0,0.0241,166.0,6,4.0
813,13.334000000000001,-13.952,1991,17.0,0.5667,30.0,12,2.0
822,0.026000000000000002,34.6358,2005,27.0,0.3103,87.0,9,1.0
823,0.026000000000000002,34.6358,2005,35.0,0.5072,69.0,12,2.0
824,0.026000000000000002,34.6358,2004,32.0,0.3636,88.0,12,1.0
825,0.026000000000000002,34.6358,2004,55.0,0.5446,101.0,6,10.0
842,-3.5063,39.8586,2001,23.0,0.2447,94.0,6,11.0
911,0.3229,34.9991,2000,8.0,0.0293,273.0,5,19.0
919,-8.19,36.2556,2002,70.0,0.3004,233.0,12,55.0
920,-8.19,36.2556,2001,72.0,0.385,187.0,12,55.0
954,15.183,35.717,1999,12.0,0.1143,105.0,10,2.0
987,0.1759,34.7496,2006,5.0,0.0676,74.0,5,1.0
1010,-17.7069,37.1894,2002,23.0,0.561,41.0,7,1.0
1128,-0.1496,34.3827,1998,5.0,0.2273,22.0,3,3.0
1165,-6.6,39.066,1992,42.0,0.7636,55.0,4,1.0
1177,-19.4179,34.4065,2002,36.0,0.4138,87.0,12,2.0
1178,-17.5755,37.1589,2002,22.0,0.7097,31.0,12,2.0
1224,-8.4125,36.6788,2004,53.0,0.4274,124.0,12,2.0
1248,13.493,-16.096,1992,5.0,0.0943,53.0,12,7.0
1249,13.493,-16.096,1991,1.0,0.0169,59.0,1,3.0
1375,6.354,2.0869999999999997,2006,53.0,0.1413,375.0,12,1.0
1409,-0.1951,35.3494,2006,5.0,0.0521,96.0,10,3.0
1411,13.6946,-15.2643,2006,13.0,0.19399999999999998,67.0,10,1.0
1412,-0.0534,34.3114,2005,7.0,0.0337,208.0,12,2.0
1455,-3.7231,39.7249,2001,18.0,0.2338,77.0,4,10.0
1470,-0.1047,34.3557,1998,15.0,0.5769,26.0,5,3.0
1502,2.8749,43.8907,2007,1.0,0.02,50.0,11,1.0
1508,-0.1357,34.4085,2006,25.0,0.4032,62.0,4,2.0
1509,-3.5221,39.8713,2000,12.0,0.2069,58.0,5,1.0
1510,-0.7024,29.6761,2006,24.0,0.3636,66.0,6,2.0
1516,-8.5291,36.5207,2004,88.0,0.7521,117.0,12,2.0
1517,-8.5291,36.5207,2002,48.0,0.5275,91.0,12,61.0
1519,-8.5291,36.5207,2001,24.0,0.5854,41.0,12,61.0
1550,13.567,-15.607000000000001,2004,100.0,0.1704,587.0,12,3.0
1574,-0.1726,34.304,1999,2.0,0.1333,15.0,12,6.0
1639,-0.1493,34.3928,1999,4.0,0.3333,12.0,9,1.0
1692,13.55,-15.9833,1992,10.0,0.3333,30.0,9,4.0
1693,13.55,-15.9833,1991,8.0,0.2581,31.0,12,2.0
1696,-6.5920000000000005,38.845,1992,49.0,0.8596,57.0,2,1.0
1706,13.335,-13.867,1991,22.0,0.7333,30.0,12,2.0
1721,0.0268,34.7011,2005,11.0,0.1264,87.0,12,2.0
1722,0.0268,34.7011,2004,22.0,0.2157,102.0,12,1.0
1723,0.0268,34.7011,2004,32.0,0.3232,99.0,12,1.0
1754,-3.5389999999999997,39.8381,1998,27.0,0.4909,55.0,5,58.0
1788,0.0263,34.6506,2005,37.0,0.3854,96.0,12,2.0
1789,0.0263,34.6506,2004,48.0,0.4752,101.0,2,8.0
1790,0.0263,34.6506,2004,55.0,0.6471,85.0,12,1.0
1805,13.4745,-15.2712,2006,7.0,0.0824,85.0,10,1.0
1808,13.600999999999999,-15.4153,1996,8.0,0.5714,14.0,10,8.0
1809,3.734,8.816,1990,24.0,0.3692,65.0,10,1.0
1810,3.734,8.816,1990,63.0,0.578,109.0,10,1.0
1832,-8.4063,36.6295,2005,1.0,0.0667,15.0,1,2.0
1836,-8.4063,36.6295,2000,13.0,0.5909,22.0,2,4.0
1857,-0.0612,34.2792,2005,46.0,0.2244,205.0,8,1.0
1858,12.883,-3.617,2000,29.0,0.7436,39.0,9,1.0
1885,15.404000000000002,35.571999999999996,1999,3.0,0.0333,90.0,10,2.0
1936,-24.7869,33.4744,2002,11.0,0.4583,24.0,12,1.0
1956,-6.5,38.866,1992,37.0,0.745,50.0,3,1.0
1970,12.370999999999999,-1.525,2002,56.0,0.3164,177.0,12,1.0
1978,3.383,8.7663,1990,27.0,0.675,40.0,3,1.0
1985,-0.1497,34.2929,2005,75.0,0.3788,198.0,6,7.0
2019,3.736,8.769,1990,21.0,0.3443,61.0,3,1.0
2049,-3.75,39.6915,2001,33.0,0.2062,160.0,8,10.0
2121,-3.5391,39.8223,2002,8.0,0.1053,76.0,4,2.0
2122,-3.5391,39.8223,2001,25.0,0.2155,116.0,5,13.0
2173,-8.2662,36.6811,2002,27.0,0.3971,68.0,12,55.0
2174,-8.2662,36.6811,2004,15.0,0.3261,46.0,12,2.0
2204,-8.1545,36.3917,2001,45.0,0.375,120.0,12,62.0
2210,-0.0035,34.1318,2005,25.0,0.1894,132.0,6,4.0
2216,13.5417,-15.5254,1997,47.0,0.8103,58.0,11,8.0
2242,-8.3124,36.6797,2002,20.0,0.5882,34.0,12,55.0
2249,13.568,-16.117,1992,14.0,0.4375,32.0,6,4.0
2250,13.568,-16.117,1991,20.0,0.6667,30.0,5,2.0
2267,-0.106,34.4078,1998,3.0,0.25,12.0,6,45.0
2280,-0.0478,34.2069,2005,16.0,0.2857,56.0,12,2.0
2285,-3.1915,37.5853,2002,8.0,0.0714,112.0,6,16.0
2286,-3.1915,37.5853,2001,0.0,0.0,172.0,7,8.0
2302,13.183,-16.383,1991,17.0,0.5667,30.0,12,2.0
2357,3.734,8.816,1990,68.0,0.5862,116.0,3,1.0
2388,-6.517,38.983000000000004,1992,44.0,0.872,50.0,2,1.0
2417,-0.0583,34.3344,2005,5.0,0.0385,130.0,6,7.0
2426,-0.0693,34.3207,2005,6.0,0.0233,258.0,5,2.0
2438,-0.1572,34.3647,1999,6.0,0.3,20.0,3,4.0
2447,12.417,-1.4680000000000002,2002,152.0,0.7308,208.0,2,3.0
2449,-0.0461,34.318000000000005,2005,4.0,0.0769,52.0,12,2.0
2494,13.565999999999999,-16.201,1992,6.0,0.1034,58.0,11,3.0
2507,13.216,-16.2,1991,15.0,0.2542,59.0,12,2.0
2520,-24.5353,33.0057,2002,10.0,0.5882,17.0,12,3.0
2535,-0.0548,34.3608,2005,2.0,0.0328,61.0,8,1.0
2537,13.583,-15.867,1996,3.0,0.3333,9.0,10,4.0
2542,-0.0548,34.2406,2005,36.0,0.2748,131.0,3,14.0
2551,-0.1505,34.3385,1999,1.0,0.0769,13.0,12,6.0
2570,-0.1618,34.4338,1998,5.0,0.2941,17.0,12,4.0
2613,-19.2269,34.2894,2002,48.0,0.3902,123.0,12,2.0
2620,-0.1499,34.4081,1998,5.0,0.2083,24.0,7,3.0
2635,12.9,-3.734,2000,44.0,0.898,49.0,9,1.0
2647,13.533,-16.267,1992,8.0,0.3333,24.0,12,7.0
2650,-0.1782,34.3866,1999,0.0,0.0,17.0,12,6.0
2672,-0.0485,34.664,1998,12.0,0.5,24.0,4,3.0
2674,-0.0268,34.1873,2005,26.0,0.1677,155.0,6,4.0
2694,-0.1257,34.3754,1999,6.0,0.2222,27.0,3,4.0
2704,13.583,-16.051,1992,15.0,0.7143,21.0,1,4.0
2705,13.583,-16.051,1991,15.0,0.5,30.0,2,3.0
2708,0.0208,34.6035,2004,58.0,0.58,100.0,5,6.0
2709,0.0208,34.6035,2004,69.0,0.69,100.0,6,10.0
2723,-0.0882,34.37,1999,8.0,0.2759,29.0,10,1.0
2731,-19.5014,34.5978,2002,44.0,0.5867,75.0,7,1.0
2737,-0.1737,34.3794,1998,7.0,0.3333,21.0,12,4.0
2753,3.398,8.755,1990,64.0,0.6154,104.0,3,1.0
2797,-3.1795,37.6588,2001,4.0,0.0233,172.0,6,2.0
2814,-3.5153,39.8376,2001,40.0,0.3077,130.0,10,13.0
2830,-3.7043,39.7306,2001,36.0,0.2449,147.0,7,10.0
2832,-3.7043,39.7306,1999,64.0,0.4267,150.0,5,1.0
2839,-24.6797,33.7873,2003,47.0,0.5949,79.0,12,1.0
2847,7.3927,-7.5522,2005,28.0,0.7778,36.0,3,1.0
2852,-6.566,39.032,1992,44.0,0.875,50.0,12,8.0
2869,-8.0979,36.5099,2004,51.0,0.311,164.0,12,2.0
2872,-8.0979,36.5099,2001,36.0,0.2647,136.0,12,57.0
2888,-24.6591,33.3218,2003,21.0,0.6562,32.0,12,4.0
2895,-0.1094,34.3309,1998,14.0,0.4828,29.0,6,54.0
2916,13.228,-16.090999999999998,1991,4.0,0.1333,30.0,11,2.0
2923,-3.5231,39.8998,1993,63.0,0.5625,112.0,6,3.0
2927,-6.83,39.24,2004,26.0,0.19699999999999998,132.0,12,2.0
2929,-6.83,39.24,2004,3.0,0.0306,98.0,12,2.0
3085,-3.5737,39.868,1991,1.0,0.2,5.0,10,4.0
3093,-3.5863,39.8335,1991,2.0,0.2222,9.0,12,14.0
3118,0.8285,30.3975,1993,4.0,0.08,50.0,12,9.0
3120,4.015,9.193,2001,47.0,0.226,208.0,12,14.0
3140,8.134,-11.618,1990,71.0,0.7474,95.0,12,9.0
3176,12.3642,-7.5943,1998,24.0,0.1017,236.0,12,1.0
3204,-5.1666,38.461,1996,60.0,0.4348,138.0,11,7.0
3220,-0.4162,34.2047,2002,92.0,0.4488,205.0,12,1.0
3262,-5.067,38.683,1998,15.0,0.4839,31.0,8,1.0
3263,-5.067,38.683,1997,34.0,0.8947,38.0,9,1.0
3277,-8.067,36.75,1985,309.0,0.9421,328.0,2,6.0
3284,-3.4579,39.8862,1991,1.0,0.3333,3.0,9,4.0
3286,13.8791,33.4448,1987,3.0,0.0345,87.0,10,3.0
3294,-3.5876,39.8492,1991,8.0,0.4,20.0,9,4.0
3320,2.425,32.724000000000004,1992,41.0,0.5125,80.0,5,5.0
3361,8.001,-11.501,1990,31.0,1.0,31.0,8,7.0
3389,16.516,-15.583,2004,13.0,0.0872,149.0,6,1.0
3391,13.549000000000001,-14.915999999999999,1987,26.0,0.527,50.0,6,2.0
3423,-3.5518,39.8337,1991,3.0,0.3,10.0,6,4.0
3435,-0.19899999999999998,35.349000000000004,2001,7.0,0.1186,59.0,6,1.0
3436,-0.19899999999999998,35.349000000000004,2000,3.0,0.0536,56.0,8,3.0
3437,-0.19899999999999998,35.349000000000004,2000,8.0,0.1176,68.0,6,4.0
3438,-0.19899999999999998,35.349000000000004,1999,6.0,0.0632,95.0,11,4.0
3440,14.052,-6.182,1995,80.0,0.3292,243.0,12,2.0
3454,8.083,-11.517000000000001,1990,45.0,0.8036,56.0,9,7.0
3455,8.083,-11.517000000000001,1990,44.0,0.6111,72.0,9,7.0
3492,-3.5649,39.8491,1990,5.0,0.2381,21.0,12,14.0
3493,-3.5649,39.8491,1991,5.0,0.2381,21.0,12,14.0
3503,-19.575,46.346000000000004,1996,76.0,0.2815,270.0,12,2.0
3506,-3.198,37.2111,2001,3.0,0.0222,135.0,12,16.0
3515,-18.884,47.315,1987,34.0,0.2764,123.0,12,2.0
3533,-3.198,37.2111,2001,0.0,0.0,154.0,12,16.0
3539,-0.3478,34.1894,2004,26.0,0.2203,118.0,12,1.0
3558,-5.115,39.084,1989,16.0,0.315,50.0,12,5.0
3559,-5.115,39.084,1989,25.0,0.505,50.0,12,5.0
3577,-6.87,39.28,2005,8.0,0.08,100.0,12,4.0
3580,-6.87,39.28,2005,35.0,0.2244,156.0,12,4.0
3585,-3.5761,39.8816,1990,2.0,0.4,5.0,12,14.0
3586,-3.5761,39.8816,1991,2.0,0.4,5.0,5,4.0
3622,-3.2695,37.195,2001,0.0,0.0,179.0,12,16.0
3670,-8.141,36.681,1990,89.0,0.2997,297.0,7,2.0
3673,-0.5125,34.3047,2004,47.0,0.2207,213.0,5,1.0
3682,14.7597,-17.3961,1987,16.0,0.0511,313.0,7,1.0
3687,14.717,-17.45,1996,75.0,0.013999999999999999,5365.0,5,1.0
3688,14.717,-17.45,1997,75.0,0.013999999999999999,5365.0,7,1.0
3703,13.6294,33.4711,1987,17.0,0.1417,120.0,7,1.0
3715,11.200999999999999,-4.298,1985,32.0,0.16,200.0,5,9.0
3722,-3.6012,39.8466,1991,3.0,0.3,10.0,5,4.0
3727,11.200999999999999,-4.298,1985,77.0,0.4031,191.0,5,9.0
3752,-6.8,39.25,2004,33.0,0.2276,145.0,9,2.0
3754,-6.8,39.25,2004,52.0,0.5149,101.0,12,2.0
3851,-0.182,34.383,1987,115.0,0.4694,245.0,6,2.0
3852,-0.182,34.383,1986,142.0,0.6396,222.0,7,4.0
3861,8.117,-11.618,1990,46.0,0.7188,64.0,6,7.0
3863,8.117,-11.618,1990,37.0,0.6066,61.0,6,7.0
3879,15.54,32.5373,1996,12.0,0.0118,1014.0,6,3.0
3887,-3.6262,39.1706,2003,22.0,0.9167,24.0,2,2.0
3906,16.517,-15.769,2004,1.0,0.0045,224.0,12,2.0
3935,-3.5907,39.8753,1990,5.0,0.3333,15.0,12,14.0
3936,-3.5907,39.8753,1991,5.0,0.3333,15.0,9,4.0
3951,12.034,-1.484,2001,143.0,0.4387,326.0,12,7.0
3953,8.134,-11.651,1990,129.0,0.6482,199.0,12,9.0
3954,8.134,-11.651,1990,145.0,0.5992,242.0,5,7.0
4005,-0.4886,34.2444,2002,45.0,0.2922,154.0,5,4.0
4010,-0.3842,34.1776,2002,101.0,0.25,404.0,12,1.0
4012,-3.5226,39.8639,1990,3.0,0.5,6.0,12,14.0
4013,-3.5226,39.8639,1991,3.0,0.5,6.0,5,4.0
4025,-14.475999999999999,35.288000000000004,1996,156.0,0.3305,472.0,12,1.0
4026,7.585,4.016,2003,53.0,0.3605,147.0,12,4.0
4119,-3.5269999999999997,39.82,1991,6.0,0.3529,17.0,7,4.0
4146,-4.1553,39.4541,1998,59.0,0.59,100.0,8,1.0
4235,0.1671,34.7484,2003,136.0,0.4401,309.0,8,5.0
4246,-18.999000000000002,47.385,1988,35.0,0.3153,111.0,11,3.0
4265,6.8660000000000005,-5.4,2003,213.0,0.5836,365.0,5,1.0
4268,6.8660000000000005,-5.4,2003,136.0,0.5837,233.0,4,1.0
4295,-3.5697,39.8713,1991,0.0,0.0,1.0,10,4.0
4298,13.683,-16.383,1997,15.0,0.1364,110.0,11,4.0
4299,-0.5667,37.45,2001,34.0,0.5397,63.0,10,4.0
4314,-6.87,39.26,2005,17.0,0.191,89.0,12,4.0
4353,-18.999000000000002,47.371,1988,56.0,0.3522,159.0,6,2.0
4354,8.099,-11.368,1990,29.0,0.537,54.0,4,7.0
4377,-3.5277,39.8218,1993,74.0,0.5564,133.0,6,3.0
4403,13.5833,-15.5829,2006,11.0,0.55,20.0,9,2.0
4415,-4.85,38.498000000000005,1997,32.0,0.4051,79.0,9,1.0
4431,-3.2208,37.1308,2001,15.0,0.0943,159.0,9,8.0
4432,-3.2208,37.1308,2001,2.0,0.0116,172.0,10,8.0
4445,7.381,3.91,2002,22.0,0.1009,218.0,6,3.0
4451,13.5645,-15.6211,2006,3.0,0.0769,39.0,10,3.0
4468,-1.607,13.605,1994,129.0,0.6386,202.0,6,4.0
4503,-3.6154,39.8448,1991,5.0,0.25,20.0,12,14.0
4524,12.312999999999999,-1.143,2002,51.0,0.8793,58.0,12,1.0
4531,-0.42,34.57,1990,40.0,0.8,50.0,12,1.0
4532,-0.42,34.57,1988,34.0,0.68,50.0,12,6.0
4565,-0.15,34.8,1988,315.0,0.863,365.0,12,8.0
4573,-25.4328,32.7805,2003,192.0,0.2775,692.0,12,6.0
4575,-25.4328,32.7805,2002,244.0,0.3065,796.0,12,6.0
4598,-4.1164,39.3695,1998,82.0,0.82,100.0,5,44.0
4698,-19.002,47.378,1988,15.0,0.3061,49.0,5,2.0
4702,-3.615,39.855,1991,1.0,0.0096,104.0,5,4.0
4703,-3.615,39.855,1991,10.0,0.0452,221.0,5,4.0
4746,0.11800000000000001,34.5126,2005,481.0,0.5292,909.0,12,2.0
4805,4.5447,9.3305,1998,21.0,0.75,28.0,12,4.0
4851,11.177999999999999,-4.297,1985,22.0,0.1095,201.0,12,16.0
4852,11.177999999999999,-4.297,1986,12.0,0.1188,101.0,12,7.0
4853,11.177999999999999,-4.297,1985,21.0,0.1391,151.0,4,9.0
4884,-3.4706,39.8892,1993,59.0,0.5315,111.0,6,3.0
4953,-3.4985,39.8718,1991,5.0,0.625,8.0,12,14.0
4959,14.343,-5.9454,1995,134.0,0.1838,729.0,12,2.0
4978,-0.1054,34.6372,1991,125.0,0.5208,240.0,5,3.0
4979,-0.1054,34.6372,1992,125.0,0.5208,240.0,3,2.0
5037,-6.81,39.26,2004,23.0,0.1533,150.0,12,2.0
5038,-6.81,39.26,2005,23.0,0.1533,150.0,12,4.0
5076,0.5262,30.5745,1993,16.0,0.324,50.0,12,9.0
5101,-3.5052,39.8546,1990,3.0,0.5,6.0,12,14.0
5102,-3.5052,39.8546,1991,3.0,0.5,6.0,2,4.0
5108,-18.75,47.516000000000005,1987,2.0,0.05,50.0,12,2.0
5128,11.3742,-4.3872,1986,56.0,0.3043,184.0,1,9.0
5129,11.3742,-4.3872,1985,76.0,0.4551,167.0,2,9.0
5130,11.3742,-4.3872,1985,70.0,0.0921,760.0,3,9.0
5138,15.067,-16.917,1991,4.0,0.08,50.0,12,5.0
5143,-4.38,39.4724,1998,50.0,0.6409999999999999,78.0,5,41.0
5144,-3.8248,39.7456,2005,65.0,0.4851,134.0,6,1.0
5157,13.982999999999999,-16.767,1996,4.0,0.04,100.0,9,2.0
5158,13.982999999999999,-16.767,1996,0.0,0.0,94.0,9,2.0
5175,-3.5419,39.8852,1990,4.0,0.1905,21.0,12,14.0
5176,-3.5419,39.8852,1991,4.0,0.1905,21.0,11,14.0
5204,14.05,-16.685,1995,115.0,0.4423,260.0,12,20.0
5206,14.05,-16.685,1996,0.0,0.0,108.0,5,4.0
5284,-3.3371,37.2729,2001,6.0,0.055,109.0,6,8.0
5285,-3.3371,37.2729,2001,2.0,0.0141,142.0,12,16.0
5296,-0.5121,34.3179,2004,135.0,0.3435,393.0,9,1.0
5327,0.0642,34.2835,1997,507.0,0.5937,854.0,2,2.0
5383,-0.4195,35.2727,1999,120.0,0.1662,722.0,7,1.0
5384,-0.4195,35.2727,2000,120.0,0.1662,722.0,4,2.0
5402,-3.5269,39.778,1998,69.0,0.6970000000000001,99.0,5,58.0
5410,13.5586,-15.8454,1988,0.0,0.0,3.0,10,1.0
5419,13.683,-16.383,1994,26.0,0.3611,72.0,8,6.0
5447,15.5938,32.5806,1996,3.0,0.0536,56.0,12,5.0
5448,15.5938,32.5806,1996,8.0,0.0833,96.0,9,3.0
5466,-10.1597,39.9599,2004,27.0,0.75,36.0,12,1.0
5493,-0.4752,34.2058,2002,67.0,0.2876,233.0,7,3.0
5502,5.5360000000000005,-0.212,2002,13.0,0.065,200.0,12,10.0
5520,4.605,9.455,1999,20.0,0.4545,44.0,12,4.0
5532,4.534,9.451,1998,36.0,0.4737,76.0,12,4.0
5533,4.534,9.451,1999,36.0,0.4737,76.0,11,2.0
5540,-4.183,39.499,1998,44.0,0.44,100.0,12,1.0
5557,-10.2315,39.8828,2004,16.0,1.0,16.0,12,1.0
5563,14.967,-17.05,1993,0.0,0.0,175.0,6,8.0
5604,-3.57,39.87,1991,1.0,0.2,5.0,6,4.0
5609,-5.2833,38.8333,1987,726.0,0.8288,876.0,6,10.0
5624,-0.7497,37.3939,2001,6.0,0.087,69.0,12,4.0
5625,-0.7497,37.3939,2002,6.0,0.087,69.0,5,4.0
5630,0.7509999999999999,30.5865,1993,6.0,0.11599999999999999,50.0,12,6.0
5641,-0.4748,34.2878,2004,12.0,0.4444,27.0,5,2.0
5642,-0.4748,34.2878,2004,67.0,0.5403,124.0,12,1.0
5657,12.4477,-1.3092,1985,59.0,0.4126,143.0,10,3.0
5680,-18.701,47.166000000000004,1987,14.0,0.27,50.0,12,2.0
5696,16.401,-16.015,1993,1.0,0.0038,263.0,12,4.0
5743,-19.3834,46.2163,2002,43.0,0.1928,223.0,12,16.0
5744,-19.3834,46.2163,2003,88.0,0.4293,205.0,12,12.0
5749,-0.4404,34.2186,2004,14.0,0.1261,111.0,12,1.0
5757,-3.5317,39.8436,1991,11.0,0.3667,30.0,10,4.0
5797,-19.386,47.43600000000001,1989,0.0,0.0,107.0,1,2.0
5800,8.1,-11.45,1990,38.0,0.5672,67.0,1,4.0
5801,8.1,-11.45,1990,37.0,0.8409,44.0,12,9.0
5858,12.57,-1.34,1992,191.0,0.9095,210.0,12,3.0
5861,-5.294,38.623000000000005,1995,323.0,0.8972,360.0,12,11.0
5865,3.767,11.482999999999999,1994,104.0,0.5503,189.0,12,6.0
5868,4.234,8.982999999999999,2001,30.0,0.6,50.0,12,14.0
5869,13.9294,-16.7612,1997,6.0,0.0667,90.0,12,4.0
5870,13.9294,-16.7612,1995,8.0,0.0702,114.0,12,27.0
5871,13.9294,-16.7612,1996,3.0,0.03,100.0,12,26.0
5872,13.9294,-16.7612,1996,0.0,0.0,134.0,11,5.0
5873,5.5889999999999995,-0.20600000000000002,2002,24.0,0.2286,105.0,12,10.0
5880,15.4412,32.4898,1996,14.0,0.0409,342.0,12,5.0
5881,15.4412,32.4898,1996,23.0,0.0359,640.0,12,5.0
5900,12.800999999999998,-7.984,1995,262.0,0.8317,315.0,12,3.0
5903,-19.4,46.716,1997,3.0,0.0492,61.0,12,7.0
5917,-3.5846,39.8186,1991,16.0,0.64,25.0,12,14.0
5944,12.317,-1.6340000000000001,1985,83.0,0.39899999999999997,208.0,8,1.0
5950,-3.5204,39.8543,1991,3.0,0.4286,7.0,2,4.0
6053,14.3,33.4,1986,3.0,0.0191,157.0,12,4.0
6063,-8.0979,36.5099,1993,539.0,0.9198,586.0,8,1.0
6078,13.919,35.316,1994,18.0,0.0197,915.0,11,1.0
6086,3.8760000000000003,11.523,1989,42.0,0.4375,96.0,12,1.0
6095,-0.1137,34.404,1986,905.0,0.9447,958.0,11,15.0
6105,-18.6923,47.1289,1987,8.0,0.17,50.0,12,2.0
6125,-3.6153,39.83,1990,8.0,0.381,21.0,12,14.0
6126,-3.6153,39.83,1991,8.0,0.381,21.0,3,4.0
6136,13.683,-16.383,1993,25.0,0.2475,101.0,12,13.0
6184,-0.1054,34.6372,2003,116.0,0.5771,201.0,12,10.0
6203,7.984,-11.567,1990,43.0,0.86,50.0,12,9.0
6207,0.381,30.3398,1993,6.0,0.12,50.0,12,12.0
6235,14.3721,33.4797,1987,0.0,0.0,46.0,3,4.0
6257,-3.4749,39.9151,1990,3.0,0.75,4.0,12,14.0
6258,-3.4749,39.9151,1991,3.0,0.75,4.0,12,14.0
6275,12.667,-1.234,1995,458.0,0.898,510.0,12,2.0
6276,12.667,-1.234,1994,288.0,0.8807,327.0,12,5.0
6278,-0.4839,34.1769,2001,113.0,0.3445,328.0,12,5.0
6293,12.2,-8.267999999999999,1993,765.0,0.779,982.0,12,1.0
6336,14.549000000000001,33.351,1986,6.0,0.0172,349.0,12,4.0
6338,13.5702,33.5345,1987,17.0,0.1429,119.0,3,1.0
6342,-16.5099,26.6917,2005,0.0,0.0,49.0,12,4.0
6355,8.151,-11.501,1990,25.0,1.0,25.0,12,9.0
6371,5.932,-7.485,1995,49.0,0.7656,64.0,12,4.0
6375,14.7597,-17.3961,1987,12.0,0.0312,385.0,12,2.0
6402,8.099,-11.55,1990,71.0,0.5591,127.0,12,9.0
6403,8.099,-11.55,1990,77.0,0.5969,129.0,12,9.0
6406,-19.0,47.419,1988,104.0,0.52,200.0,3,2.0
6407,-19.0,47.419,1988,105.0,0.6213,169.0,12,13.0
6408,-19.0,47.419,1987,116.0,0.5225,222.0,12,2.0
6409,-19.0,47.419,1989,55.0,0.2778,198.0,12,8.0
6418,-19.145,46.4238,2003,15.0,0.0743,202.0,3,11.0
6435,-0.5920000000000001,34.7363,2002,11.0,0.3143,35.0,12,3.0
6464,-3.533,39.815,1991,84.0,0.3218,261.0,12,14.0
6471,13.449000000000002,-16.685,1991,18.0,0.18,100.0,12,2.0
6475,-3.1833,37.0667,2001,8.0,0.0556,144.0,12,16.0
6476,-3.1833,37.0667,2001,11.0,0.0714,154.0,12,16.0
6480,-0.4596,34.2662,2002,160.0,0.396,404.0,12,1.0
6481,-0.4596,34.2662,2004,29.0,0.2197,132.0,12,1.0
6499,-3.536,39.8565,1990,1.0,0.2,5.0,12,14.0
6500,-3.536,39.8565,1991,1.0,0.2,5.0,12,14.0
6506,-6.84,39.27,2005,19.0,0.1159,164.0,12,4.0
6526,-10.2164,39.8632,2004,22.0,0.5641,39.0,12,1.0
6532,-19.0094,46.4225,2003,38.0,0.1881,202.0,12,12.0
6538,4.501,9.45,1998,17.0,0.3036,56.0,12,4.0
6550,-3.5819,39.8613,1990,9.0,0.5,18.0,12,14.0
6551,-3.5819,39.8613,1991,9.0,0.5,18.0,3,4.0
6560,8.101,-11.534,1990,39.0,0.7959,49.0,12,9.0
6565,5.556,-0.21600000000000003,2002,18.0,0.1125,160.0,12,10.0
6579,-16.991,49.868,1989,380.0,0.7585,501.0,12,6.0
6580,-16.991,49.868,1988,468.0,0.635,737.0,12,9.0
6622,5.565,-0.217,2002,33.0,0.2062,160.0,12,10.0
6634,-0.4247,34.2064,2002,96.0,0.2119,453.0,12,1.0
6652,5.582999999999999,-0.21,2002,40.0,0.1826,219.0,12,10.0
6674,11.183,-4.2989999999999995,1985,12.0,0.06,200.0,12,16.0
6675,11.183,-4.2989999999999995,1986,3.0,0.0375,80.0,12,7.0
6676,11.183,-4.2989999999999995,1985,14.0,0.1176,119.0,12,16.0
6677,12.9,-3.734,2003,47.0,0.3333,141.0,12,2.0
6681,3.682,11.415,1989,76.0,0.5429,140.0,12,1.0
6682,13.189,30.218000000000004,1989,54.0,0.1314,411.0,12,8.0
6683,13.189,30.218000000000004,1989,53.0,0.1162,456.0,12,8.0
6687,-0.4757,34.2881,2002,150.0,0.4747,316.0,12,1.0
6704,14.232999999999999,38.25,1999,1.0,0.0031,322.0,6,2.0
6730,-3.569,39.8267,1991,6.0,0.4286,14.0,9,4.0
6786,-5.0888,38.4722,1996,456.0,0.6396,713.0,7,9.0
6833,-6.76,39.24,2006,11.0,0.1429,77.0,6,4.0
6834,-6.76,39.24,2004,19.0,0.1939,98.0,7,2.0
6836,-6.76,39.24,2004,13.0,0.1566,83.0,9,2.0
6847,-3.5649,39.8491,1993,83.0,0.5685,146.0,5,18.0
6848,-4.4166,35.516,1986,39.0,0.0774,504.0,6,10.0
6867,0.0129,34.8153,1987,89.0,0.3956,225.0,8,3.0
6868,0.0129,34.8153,1986,123.0,0.494,249.0,9,3.0
6877,-3.5339,39.8319,1991,6.0,0.3333,18.0,7,4.0
6898,-22.401999999999997,46.122,1999,8.0,0.0444,180.0,3,1.0
6899,-22.401999999999997,46.122,1999,48.0,0.1846,260.0,3,1.0
6921,-5.1666,38.7833,1995,309.0,0.8583,360.0,6,1.0
6940,4.07,9.363999999999999,2001,72.0,0.36,200.0,12,14.0
6953,-18.95,47.567,1989,25.0,0.4032,62.0,7,2.0
6963,-4.934,38.449,1996,132.0,0.2609,506.0,1,7.0
6973,-0.5794,34.7991,2002,29.0,0.2544,114.0,11,2.0
6991,13.5754,-15.82,1989,6.0,0.2143,28.0,10,6.0
7027,4.2010000000000005,11.116,2006,15.0,0.3061,49.0,11,4.0
7042,-3.5084,39.8349,1991,3.0,0.2143,14.0,7,4.0
7052,-16.2879,26.6071,2004,2.0,0.0126,159.0,3,2.0
7080,-6.84,39.23,2004,45.0,0.3689,122.0,8,2.0
7082,-6.84,39.23,2004,6.0,0.0496,121.0,8,2.0
7091,13.5786,-15.8222,1988,15.0,0.3261,46.0,10,4.0
7092,13.5786,-15.8222,1988,4.0,0.0784,51.0,10,4.0
7100,-3.201,37.1652,2001,0.0,0.0,141.0,11,8.0
7101,-3.201,37.1652,2001,0.0,0.0,190.0,6,8.0
7135,0.44,33.205999999999996,2003,59.0,0.2543,232.0,6,4.0
7137,1.8515,32.4536,1992,11.0,0.2821,39.0,5,7.0
7139,-18.706,47.357,1987,137.0,0.1451,944.0,12,2.0
7155,-0.4918,34.2807,2004,60.0,0.2076,289.0,7,3.0
7188,8.117,-11.567,1990,20.0,0.6452,31.0,10,7.0
7189,8.117,-11.567,1990,18.0,0.6429,28.0,9,7.0
7194,13.404000000000002,-16.713,1996,76.0,0.3707,205.0,9,5.0
7202,-3.5513,39.8629,1991,2.0,0.2222,9.0,9,4.0
7209,11.58,-4.45,1985,30.0,0.4918,61.0,8,9.0
7221,-0.1054,34.6372,2003,122.0,0.9104,134.0,9,3.0
7222,13.5741,-15.5596,2006,5.0,0.5556,9.0,9,2.0
7248,-19.145,46.4238,2003,25.0,0.1163,215.0,10,8.0
7257,-8.0021,35.8456,2001,0.0,0.0,300.0,12,7.0
7271,-5.058,38.46,1996,264.0,0.66,400.0,10,7.0
7283,15.4412,32.4898,1996,32.0,0.0584,548.0,8,1.0
7293,11.51,-12.46,1989,107.0,0.6485,165.0,9,3.0
7316,-5.184,38.783,1996,98.0,0.3333,294.0,5,8.0
7329,-5.083,39.099000000000004,1989,17.0,0.331,50.0,3,8.0
7340,-19.0094,46.4225,2003,7.0,0.0335,209.0,2,11.0
7352,-0.1742,34.9301,1990,30.0,0.602,50.0,11,1.0
7353,-0.1742,34.9301,1988,39.0,0.78,50.0,12,5.0
7372,-4.883,38.233000000000004,1989,327.0,0.8363,391.0,6,13.0
7373,-4.883,38.233000000000004,1988,346.0,0.7991,433.0,6,10.0
7403,-3.5596,39.8583,1991,0.0,0.0,3.0,8,4.0
7407,-3.4883,39.9094,1991,0.0,0.0,5.0,12,14.0
7422,-3.25,37.233000000000004,2001,0.0,0.0,145.0,12,16.0
7423,-3.25,37.233000000000004,2001,0.0,0.0,158.0,12,16.0
7470,-4.8469999999999995,38.184,1987,425.0,0.8416,505.0,9,2.0
7481,0.4109,30.3518,1993,9.0,0.17600000000000002,50.0,12,12.0
7482,6.692,-1.604,2002,17.0,0.095,179.0,9,4.0
7498,-0.3312,34.8687,1999,322.0,0.7419,434.0,12,6.0
7510,0.3,6.649,1997,9.0,0.12,75.0,12,3.0
7512,0.5978,30.2961,1993,5.0,0.091,50.0,9,1.0
7526,-0.4456,34.2332,2004,46.0,0.1966,234.0,12,1.0
7527,-0.4456,34.2332,2004,12.0,0.2857,42.0,9,1.0
7532,14.46,33.344,1986,8.0,0.0576,139.0,12,4.0
7538,-3.2324,37.1946,2001,11.0,0.0621,177.0,12,16.0
7539,-3.2324,37.1946,2001,0.0,0.0,165.0,9,8.0
7553,14.317,-5.95,1995,85.0,0.1545,550.0,12,2.0
7563,-4.427,39.503,1998,60.0,0.6,100.0,12,1.0
7570,-5.1465,38.561,2005,34.0,0.3178,107.0,9,2.0
7583,-0.4094,34.1529,2003,29.0,0.29,100.0,12,3.0
7605,0.03,34.45,1988,363.0,0.7547,481.0,12,5.0
7607,11.22,-4.641,1987,49.0,0.4537,108.0,12,1.0
7608,11.22,-4.641,1985,107.0,0.5815,184.0,12,16.0
7646,-3.4596,39.8997,1990,2.0,0.5,4.0,12,14.0
7647,-3.4596,39.8997,1991,2.0,0.5,4.0,1,4.0
7669,-4.45,39.299,1999,76.0,0.4246,179.0,6,8.0
7710,13.7615,33.514,1987,1.0,0.0115,87.0,6,1.0
7712,-3.5416,39.8474,1990,4.0,0.2857,14.0,12,14.0
7713,-3.5416,39.8474,1991,4.0,0.2857,14.0,12,14.0
7721,13.21,30.322,1989,18.0,0.2571,70.0,12,8.0
7722,13.21,30.322,1989,24.0,0.4286,56.0,12,8.0
7746,-3.5699,39.8366,1991,1.0,0.125,8.0,12,14.0
7771,-5.066,39.051,1989,17.0,0.33299999999999996,50.0,9,1.0
7789,14.800999999999998,-17.334,1995,22.0,0.0599,367.0,9,1.0
7818,-0.0955,34.7569,1986,8.0,0.0784,102.0,6,4.0
7844,-3.4696,39.9185,1991,1.0,0.0909,11.0,6,4.0
7853,4.4549,9.2463,1998,17.0,0.5667,30.0,12,4.0
7858,-5.016,38.616,1996,315.0,0.5877,536.0,11,7.0
7868,-3.6005,39.8705,1991,4.0,0.2353,17.0,9,4.0
7874,-5.05,38.765,1996,174.0,0.7565,230.0,12,11.0
7875,13.716,-16.418,1990,43.0,0.86,50.0,6,3.0
7879,14.283,38.195,1999,2.0,0.0233,86.0,10,2.0
7880,13.5445,-15.6211,2006,7.0,0.5385,13.0,8,5.0
7882,13.5848,-15.5599,2006,2.0,0.2222,9.0,9,2.0
7884,5.5360000000000005,-0.23600000000000002,2002,16.0,0.0884,181.0,8,9.0
7897,-3.4109,37.1949,2001,55.0,0.1389,396.0,12,16.0
7913,-0.4749,34.1731,2001,45.0,0.2795,161.0,12,5.0
7937,3.852,11.525,1999,78.0,0.3197,244.0,10,3.0
7945,-16.333,46.85,1989,66.0,0.7174,92.0,12,1.0
7947,-18.783,47.299,1987,4.0,0.07,50.0,12,2.0
7950,-5.1833,38.8666,1998,126.0,0.7826,161.0,9,1.0
7959,6.501,-4.601,2003,126.0,0.5701,221.0,4,1.0
7960,6.501,-4.601,2002,211.0,0.8612,245.0,6,2.0
7961,6.501,-4.601,2005,166.0,0.5685,292.0,8,1.0
7966,-4.328,15.294,1985,157.0,0.3738,420.0,5,1.0
7973,-19.017,47.449,1987,50.0,0.7937,63.0,10,2.0
7984,12.364,-1.53,1985,238.0,0.159,1497.0,8,1.0
7993,-6.8,39.249,2004,31.0,0.3407,91.0,3,1.0
8051,-19.3834,46.2163,2004,70.0,0.3448,203.0,9,12.0
8057,15.5938,32.5806,1996,2.0,0.0247,81.0,9,3.0
8060,12.583,-3.968,2003,56.0,0.306,183.0,12,2.0
8070,4.131,11.033,1989,87.0,0.9255,94.0,12,9.0
8095,14.450999999999999,33.505,1986,1.0,0.0071,141.0,12,4.0
8131,-5.127999999999999,38.6,1998,5.0,0.2273,22.0,12,2.0
8132,-5.127999999999999,38.6,1997,20.0,0.7407,27.0,12,2.0
8134,-3.5804,39.8259,1990,3.0,0.375,8.0,12,14.0
8135,-3.5804,39.8259,1991,3.0,0.375,8.0,3,4.0
8148,-6.79,39.26,2006,18.0,0.1304,138.0,3,4.0
8151,-6.79,39.26,2006,16.0,0.1221,131.0,3,4.0
8152,-6.79,39.26,2004,33.0,0.2973,111.0,3,1.0
8194,-4.183,39.533,1998,66.0,0.66,100.0,12,1.0
8210,-3.5581,39.8907,1991,5.0,0.5556,9.0,3,4.0
8215,-0.634,37.366,1989,1.0,0.0084,119.0,12,4.0
8216,-0.634,37.366,1989,9.0,0.0177,509.0,12,4.0
8237,0.6774,30.6819,1993,6.0,0.115,50.0,12,3.0
8279,14.15,-16.65,1996,2.0,0.0247,81.0,12,14.0
8289,15.5938,32.5806,1996,12.0,0.2609,46.0,10,1.0
8327,-4.7555,38.3555,1996,84.0,0.1181,711.0,3,7.0
